<?xml version="1.0" encoding="UTF-8" standalone="no"?>
<svg
   height="128px"
   viewBox="0 0 128 128"
   width="128px"
   version="1.1"
   id="svg219"
   sodipodi:docname="io.gitlab.theevilskeleton.Upscaler.Devel.svg"
   inkscape:version="1.2.1 (9c6d41e410, 2022-07-14)"
   inkscape:export-filename="io.gitlab.theevilskeleton.Upscaler.Devel.png"
   inkscape:export-xdpi="96"
   inkscape:export-ydpi="96"
   xmlns:inkscape="http://www.inkscape.org/namespaces/inkscape"
   xmlns:sodipodi="http://sodipodi.sourceforge.net/DTD/sodipodi-0.dtd"
   xmlns:xlink="http://www.w3.org/1999/xlink"
   xmlns="http://www.w3.org/2000/svg"
   xmlns:svg="http://www.w3.org/2000/svg">
  <sodipodi:namedview
     id="namedview221"
     pagecolor="#ffffff"
     bordercolor="#666666"
     borderopacity="1.0"
     inkscape:showpageshadow="2"
     inkscape:pageopacity="0.0"
     inkscape:pagecheckerboard="0"
     inkscape:deskcolor="#d1d1d1"
     showgrid="false"
     inkscape:zoom="1.0468495"
     inkscape:cx="212.54249"
     inkscape:cy="110.80867"
     inkscape:window-width="960"
     inkscape:window-height="423"
     inkscape:window-x="0"
     inkscape:window-y="0"
     inkscape:window-maximized="1"
     inkscape:current-layer="svg219" />
  <defs
     id="defs205">
    <linearGradient
       id="a"
       gradientTransform="matrix(0.943869 0 0 2.926441 -471.067583 -1692.343281)"
       gradientUnits="userSpaceOnUse"
       x1="95.556961"
       x2="30.610176"
       y1="288.832336"
       y2="288.832336">
      <stop
         offset="0"
         stop-color="#2b8080"
         id="stop2" />
      <stop
         offset="0.0335631"
         stop-color="#c2eded"
         id="stop4" />
      <stop
         offset="0.0854104"
         stop-color="#76b7b4"
         id="stop6" />
      <stop
         offset="0.227649"
         stop-color="#2a817c"
         id="stop8" />
      <stop
         offset="0.890786"
         stop-color="#38aabf"
         id="stop10" />
      <stop
         offset="0.945393"
         stop-color="#b7d9fc"
         id="stop12" />
      <stop
         offset="1"
         stop-color="#309186"
         id="stop14" />
    </linearGradient>
    <clipPath
       id="b">
      <path
         d="m 20.496094 32 h 102.914062 v 58 h -102.914062 z m 0 0"
         id="path17" />
    </clipPath>
    <linearGradient
       id="c"
       gradientTransform="matrix(0 -56.948432 102.886311 0 20.52219 89.472421)"
       gradientUnits="userSpaceOnUse"
       x1="-0.040162"
       x2="-0.040162"
       y1="0.994357"
       y2="0.005406">
      <stop
         offset="0"
         stop-color="#2b8f89"
         id="stop20" />
      <stop
         offset="0.0186402"
         stop-color="#97dbba"
         stop-opacity="0.74902"
         id="stop22" />
      <stop
         offset="0.0547227"
         stop-color="#2e9a8d"
         id="stop24" />
      <stop
         offset="0.206769"
         stop-color="#2e9a8d"
         id="stop26" />
      <stop
         offset="0.908214"
         stop-color="#175bad"
         id="stop28" />
      <stop
         offset="0.97459"
         stop-color="#64a0e8"
         id="stop30" />
      <stop
         offset="1"
         stop-color="#12498c"
         id="stop32" />
    </linearGradient>
    <clipPath
       id="d">
      <path
         d="m 47 58 h 76.410156 v 28 h -76.410156 z m 0 0"
         id="path35" />
    </clipPath>
    <clipPath
       id="e">
      <path
         d="m 20.5 75.929688 c -0.097656 2.589843 1.496094 5.09375 4.417969 6.945312 c 2.925781 1.855469 6.933593 2.898438 11.121093 2.898438 h 16.492188 c 6.46875 0 12.9375 -0.003907 19.40625 0 h 0.070312 h 15.949219 c 6.625 0 13.253907 -0.003907 19.878907 0 c 1.574218 0.019531 3.121093 -0.136719 4.589843 -0.429688 c 0.015625 0 0.027344 -0.003906 0.042969 -0.007812 c 0.40625 -0.082032 0.8125 -0.167969 1.214844 -0.273438 c 0.347656 -0.089844 0.6875 -0.1875 1.027344 -0.292969 c 0.035156 -0.007812 0.070312 -0.023437 0.109374 -0.03125 c 0.160157 -0.046875 0.3125 -0.09375 0.472657 -0.144531 c 0.90625 -0.304688 1.765625 -0.667969 2.5625 -1.082031 c 1.273437 -0.667969 2.359375 -1.457031 3.230469 -2.339844 c 0.230468 -0.230469 0.449218 -0.472656 0.652343 -0.714844 c 0.867188 -1.042969 1.410157 -2.1875 1.558594 -3.378906 c 0.003906 -0.035156 0.015625 -0.074219 0.019531 -0.113281 c 0.019532 -0.148438 0.03125 -0.292969 0.039063 -0.441406 c 0.019531 -0.214844 0.03125 -0.425782 0.023437 -0.640626 c -0.003906 -0.015624 -0.003906 -0.03125 -0.007812 -0.046874 c -0.015625 -0.269532 -0.046875 -0.539063 -0.105469 -0.808594 c -0.246094 -1.296875 -0.914063 -2.546875 -1.964844 -3.679688 l -0.148437 -0.160156 c -0.304688 -0.351562 -0.628906 -0.703125 -0.972656 -1.042969 l -16.828126 -18.03125 l -17.953124 -19.234375 c -2.941407 -3.152344 -8.503907 -5.003906 -14.378907 -4.792968 c -1.972656 0.058593 -3.929687 0.347656 -5.738281 0.902343 c -1.496094 0.402344 -2.792969 0.984375 -3.945312 1.664063 c -0.046876 0.03125 -0.097657 0.0625 -0.148438 0.089844 c -0.253906 0.15625 -0.503906 0.3125 -0.742188 0.480468 c -0.195312 0.136719 -0.386718 0.273438 -0.570312 0.414063 c -0.136719 0.105469 -0.269531 0.210937 -0.402344 0.316406 c -0.109375 0.089844 -0.21875 0.183594 -0.324218 0.277344 c -0.6875 0.585937 -1.304688 1.210937 -1.847657 1.847656 c -0.03125 0.050781 -0.058593 0.101563 -0.089843 0.148437 l -34.632813 37.121094 c -1.300781 1.394532 -2.015625 2.972656 -2.078125 4.582032 z m 0 0"
         id="path38" />
    </clipPath>
    <clipPath
       id="f">
      <path
         d="m 20.496094 31 h 102.914062 v 55 h -102.914062 z m 0 0"
         id="path41" />
    </clipPath>
    <clipPath
       id="g">
      <path
         d="m 20.5 75.929688 c -0.097656 2.589843 1.496094 5.09375 4.417969 6.945312 c 2.925781 1.855469 6.933593 2.898438 11.121093 2.898438 h 16.492188 c 6.46875 0 12.9375 -0.003907 19.40625 0 h 0.070312 h 15.949219 c 6.625 0 13.253907 -0.003907 19.878907 0 c 1.574218 0.019531 3.121093 -0.136719 4.589843 -0.429688 c 0.015625 0 0.027344 -0.003906 0.042969 -0.007812 c 0.40625 -0.082032 0.8125 -0.167969 1.214844 -0.273438 c 0.347656 -0.089844 0.6875 -0.1875 1.027344 -0.292969 c 0.035156 -0.007812 0.070312 -0.023437 0.109374 -0.03125 c 0.160157 -0.046875 0.3125 -0.09375 0.472657 -0.144531 c 0.90625 -0.304688 1.765625 -0.667969 2.5625 -1.082031 c 1.273437 -0.667969 2.359375 -1.457031 3.230469 -2.339844 c 0.230468 -0.230469 0.449218 -0.472656 0.652343 -0.714844 c 0.867188 -1.042969 1.410157 -2.1875 1.558594 -3.378906 c 0.003906 -0.035156 0.015625 -0.074219 0.019531 -0.113281 c 0.019532 -0.148438 0.03125 -0.292969 0.039063 -0.441406 c 0.019531 -0.214844 0.03125 -0.425782 0.023437 -0.640626 c -0.003906 -0.015624 -0.003906 -0.03125 -0.007812 -0.046874 c -0.015625 -0.269532 -0.046875 -0.539063 -0.105469 -0.808594 c -0.246094 -1.296875 -0.914063 -2.546875 -1.964844 -3.679688 l -0.148437 -0.160156 c -0.304688 -0.351562 -0.628906 -0.703125 -0.972656 -1.042969 l -16.828126 -18.03125 l -17.953124 -19.234375 c -2.941407 -3.152344 -8.503907 -5.003906 -14.378907 -4.792968 c -1.972656 0.058593 -3.929687 0.347656 -5.738281 0.902343 c -1.496094 0.402344 -2.792969 0.984375 -3.945312 1.664063 c -0.046876 0.03125 -0.097657 0.0625 -0.148438 0.089844 c -0.253906 0.15625 -0.503906 0.3125 -0.742188 0.480468 c -0.195312 0.136719 -0.386718 0.273438 -0.570312 0.414063 c -0.136719 0.105469 -0.269531 0.210937 -0.402344 0.316406 c -0.109375 0.089844 -0.21875 0.183594 -0.324218 0.277344 c -0.6875 0.585937 -1.304688 1.210937 -1.847657 1.847656 c -0.03125 0.050781 -0.058593 0.101563 -0.089843 0.148437 l -34.632813 37.121094 c -1.300781 1.394532 -2.015625 2.972656 -2.078125 4.582032 z m 0 0"
         id="path44" />
    </clipPath>
    <linearGradient
       id="h"
       gradientTransform="matrix(-0.382833 -97.651168 139.112374 -0.279921 -9.694844 129.270558)"
       gradientUnits="userSpaceOnUse"
       x1="0.136364"
       x2="0.404698"
       y1="0.636831"
       y2="0.153269">
      <stop
         offset="0"
         stop-color="#56c5c4"
         id="stop47" />
      <stop
         offset="1"
         stop-color="#1d65c9"
         id="stop49" />
    </linearGradient>
    <clipPath
       id="i">
      <path
         d="m 20.496094 28.070312 h 102.914062 v 57.929688 h -102.914062 z m 0 0"
         id="path52" />
    </clipPath>
    <clipPath
       id="j">
      <path
         d="m 20.5 75.929688 c -0.097656 2.589843 1.496094 5.09375 4.417969 6.945312 c 2.925781 1.855469 6.933593 2.898438 11.121093 2.898438 h 16.492188 c 6.46875 0 12.9375 -0.003907 19.40625 0 h 0.070312 h 15.949219 c 6.625 0 13.253907 -0.003907 19.878907 0 c 1.574218 0.019531 3.121093 -0.136719 4.589843 -0.429688 c 0.015625 0 0.027344 -0.003906 0.042969 -0.007812 c 0.40625 -0.082032 0.8125 -0.167969 1.214844 -0.273438 c 0.347656 -0.089844 0.6875 -0.1875 1.027344 -0.292969 c 0.035156 -0.007812 0.070312 -0.023437 0.109374 -0.03125 c 0.160157 -0.046875 0.3125 -0.09375 0.472657 -0.144531 c 0.90625 -0.304688 1.765625 -0.667969 2.5625 -1.082031 c 1.273437 -0.667969 2.359375 -1.457031 3.230469 -2.339844 c 0.230468 -0.230469 0.449218 -0.472656 0.652343 -0.714844 c 0.867188 -1.042969 1.410157 -2.1875 1.558594 -3.378906 c 0.003906 -0.035156 0.015625 -0.074219 0.019531 -0.113281 c 0.019532 -0.148438 0.03125 -0.292969 0.039063 -0.441406 c 0.019531 -0.214844 0.03125 -0.425782 0.023437 -0.640626 c -0.003906 -0.015624 -0.003906 -0.03125 -0.007812 -0.046874 c -0.015625 -0.269532 -0.046875 -0.539063 -0.105469 -0.808594 c -0.246094 -1.296875 -0.914063 -2.546875 -1.964844 -3.679688 l -0.148437 -0.160156 c -0.304688 -0.351562 -0.628906 -0.703125 -0.972656 -1.042969 l -16.828126 -18.03125 l -17.953124 -19.234375 c -2.941407 -3.152344 -8.503907 -5.003906 -14.378907 -4.792968 c -1.972656 0.058593 -3.929687 0.347656 -5.738281 0.902343 c -1.496094 0.402344 -2.792969 0.984375 -3.945312 1.664063 c -0.046876 0.03125 -0.097657 0.0625 -0.148438 0.089844 c -0.253906 0.15625 -0.503906 0.3125 -0.742188 0.480468 c -0.195312 0.136719 -0.386718 0.273438 -0.570312 0.414063 c -0.136719 0.105469 -0.269531 0.210937 -0.402344 0.316406 c -0.109375 0.089844 -0.21875 0.183594 -0.324218 0.277344 c -0.6875 0.585937 -1.304688 1.210937 -1.847657 1.847656 c -0.03125 0.050781 -0.058593 0.101563 -0.089843 0.148437 l -34.632813 37.121094 c -1.300781 1.394532 -2.015625 2.972656 -2.078125 4.582032 z m 0 0"
         id="path55" />
    </clipPath>
    <linearGradient
       id="k"
       gradientTransform="matrix(-0.277863 -71.018566 106.690968 -0.215086 18.757248 93.704163)"
       gradientUnits="userSpaceOnUse"
       x1="0.1875"
       x2="0.422119"
       y1="0.863331"
       y2="0.276785">
      <stop
         offset="0"
         stop-color="#2dc0af"
         id="stop58" />
      <stop
         offset="1"
         stop-color="#3584e4"
         id="stop60" />
    </linearGradient>
    <clipPath
       id="l">
      <path
         d="m 43 55 h 80.410156 v 31 h -80.410156 z m 0 0"
         id="path63" />
    </clipPath>
    <clipPath
       id="m">
      <path
         d="m 20.5 75.929688 c -0.097656 2.589843 1.496094 5.09375 4.417969 6.945312 c 2.925781 1.855469 6.933593 2.898438 11.121093 2.898438 h 16.492188 c 6.46875 0 12.9375 -0.003907 19.40625 0 h 0.070312 h 15.949219 c 6.625 0 13.253907 -0.003907 19.878907 0 c 1.574218 0.019531 3.121093 -0.136719 4.589843 -0.429688 c 0.015625 0 0.027344 -0.003906 0.042969 -0.007812 c 0.40625 -0.082032 0.8125 -0.167969 1.214844 -0.273438 c 0.347656 -0.089844 0.6875 -0.1875 1.027344 -0.292969 c 0.035156 -0.007812 0.070312 -0.023437 0.109374 -0.03125 c 0.160157 -0.046875 0.3125 -0.09375 0.472657 -0.144531 c 0.90625 -0.304688 1.765625 -0.667969 2.5625 -1.082031 c 1.273437 -0.667969 2.359375 -1.457031 3.230469 -2.339844 c 0.230468 -0.230469 0.449218 -0.472656 0.652343 -0.714844 c 0.867188 -1.042969 1.410157 -2.1875 1.558594 -3.378906 c 0.003906 -0.035156 0.015625 -0.074219 0.019531 -0.113281 c 0.019532 -0.148438 0.03125 -0.292969 0.039063 -0.441406 c 0.019531 -0.214844 0.03125 -0.425782 0.023437 -0.640626 c -0.003906 -0.015624 -0.003906 -0.03125 -0.007812 -0.046874 c -0.015625 -0.269532 -0.046875 -0.539063 -0.105469 -0.808594 c -0.246094 -1.296875 -0.914063 -2.546875 -1.964844 -3.679688 l -0.148437 -0.160156 c -0.304688 -0.351562 -0.628906 -0.703125 -0.972656 -1.042969 l -16.828126 -18.03125 l -17.953124 -19.234375 c -2.941407 -3.152344 -8.503907 -5.003906 -14.378907 -4.792968 c -1.972656 0.058593 -3.929687 0.347656 -5.738281 0.902343 c -1.496094 0.402344 -2.792969 0.984375 -3.945312 1.664063 c -0.046876 0.03125 -0.097657 0.0625 -0.148438 0.089844 c -0.253906 0.15625 -0.503906 0.3125 -0.742188 0.480468 c -0.195312 0.136719 -0.386718 0.273438 -0.570312 0.414063 c -0.136719 0.105469 -0.269531 0.210937 -0.402344 0.316406 c -0.109375 0.089844 -0.21875 0.183594 -0.324218 0.277344 c -0.6875 0.585937 -1.304688 1.210937 -1.847657 1.847656 c -0.03125 0.050781 -0.058593 0.101563 -0.089843 0.148437 l -34.632813 37.121094 c -1.300781 1.394532 -2.015625 2.972656 -2.078125 4.582032 z m 0 0"
         id="path66" />
    </clipPath>
    <linearGradient
       id="n"
       gradientTransform="matrix(0 -73.150949 103.29862 0 43.14974 128.229441)"
       gradientUnits="userSpaceOnUse"
       x1="0.562523"
       x2="-0.308168"
       y1="0.597858"
       y2="0.473474">
      <stop
         offset="0"
         stop-color="#ffffff"
         stop-opacity="0.4"
         id="stop69" />
      <stop
         offset="1"
         stop-color="#ffffff"
         stop-opacity="0"
         id="stop71" />
    </linearGradient>
    <clipPath
       id="o">
      <path
         d="m 46 28.070312 h 77 v 39.929688 h -77 z m 0 0"
         id="path74" />
    </clipPath>
    <clipPath
       id="p">
      <path
         d="m 20.5 75.929688 c -0.097656 2.589843 1.496094 5.09375 4.417969 6.945312 c 2.925781 1.855469 6.933593 2.898438 11.121093 2.898438 h 16.492188 c 6.46875 0 12.9375 -0.003907 19.40625 0 h 0.070312 h 15.949219 c 6.625 0 13.253907 -0.003907 19.878907 0 c 1.574218 0.019531 3.121093 -0.136719 4.589843 -0.429688 c 0.015625 0 0.027344 -0.003906 0.042969 -0.007812 c 0.40625 -0.082032 0.8125 -0.167969 1.214844 -0.273438 c 0.347656 -0.089844 0.6875 -0.1875 1.027344 -0.292969 c 0.035156 -0.007812 0.070312 -0.023437 0.109374 -0.03125 c 0.160157 -0.046875 0.3125 -0.09375 0.472657 -0.144531 c 0.90625 -0.304688 1.765625 -0.667969 2.5625 -1.082031 c 1.273437 -0.667969 2.359375 -1.457031 3.230469 -2.339844 c 0.230468 -0.230469 0.449218 -0.472656 0.652343 -0.714844 c 0.867188 -1.042969 1.410157 -2.1875 1.558594 -3.378906 c 0.003906 -0.035156 0.015625 -0.074219 0.019531 -0.113281 c 0.019532 -0.148438 0.03125 -0.292969 0.039063 -0.441406 c 0.019531 -0.214844 0.03125 -0.425782 0.023437 -0.640626 c -0.003906 -0.015624 -0.003906 -0.03125 -0.007812 -0.046874 c -0.015625 -0.269532 -0.046875 -0.539063 -0.105469 -0.808594 c -0.246094 -1.296875 -0.914063 -2.546875 -1.964844 -3.679688 l -0.148437 -0.160156 c -0.304688 -0.351562 -0.628906 -0.703125 -0.972656 -1.042969 l -16.828126 -18.03125 l -17.953124 -19.234375 c -2.941407 -3.152344 -8.503907 -5.003906 -14.378907 -4.792968 c -1.972656 0.058593 -3.929687 0.347656 -5.738281 0.902343 c -1.496094 0.402344 -2.792969 0.984375 -3.945312 1.664063 c -0.046876 0.03125 -0.097657 0.0625 -0.148438 0.089844 c -0.253906 0.15625 -0.503906 0.3125 -0.742188 0.480468 c -0.195312 0.136719 -0.386718 0.273438 -0.570312 0.414063 c -0.136719 0.105469 -0.269531 0.210937 -0.402344 0.316406 c -0.109375 0.089844 -0.21875 0.183594 -0.324218 0.277344 c -0.6875 0.585937 -1.304688 1.210937 -1.847657 1.847656 c -0.03125 0.050781 -0.058593 0.101563 -0.089843 0.148437 l -34.632813 37.121094 c -1.300781 1.394532 -2.015625 2.972656 -2.078125 4.582032 z m 0 0"
         id="path77" />
    </clipPath>
    <linearGradient
       id="q"
       gradientTransform="matrix(-0.17598 -44.804809 75.162841 -0.151281 47.098195 67.443066)"
       gradientUnits="userSpaceOnUse"
       x1="0.99036"
       x2="0.107737"
       y1="0.399412"
       y2="0.508042">
      <stop
         offset="0"
         stop-color="#2dc0af"
         id="stop80" />
      <stop
         offset="1"
         stop-color="#5ed9cb"
         id="stop82" />
    </linearGradient>
    <clipPath
       id="r">
      <path
         d="m 47 75 h 55 v 52.402344 h -55 z m 0 0"
         id="path85" />
    </clipPath>
    <clipPath
       id="s">
      <path
         d="m 54.078125 75.898438 h 36.1875 c 6.402344 0 11.601563 5.199218 11.601563 11.601562 v 28.300781 c 0 6.402344 -5.199219 11.601563 -11.601563 11.601563 h -36.1875 c -6.402344 0 -11.601563 -5.199219 -11.601563 -11.601563 v -28.300781 c 0 -6.402344 5.199219 -11.601562 11.601563 -11.601562 z m 0 0"
         id="path88" />
    </clipPath>
    <clipPath
       id="t">
      <path
         d="m 42 75 h 60 v 52.402344 h -60 z m 0 0"
         id="path91" />
    </clipPath>
    <clipPath
       id="u">
      <path
         d="m 54.078125 75.898438 h 36.1875 c 6.402344 0 11.601563 5.199218 11.601563 11.601562 v 28.300781 c 0 6.402344 -5.199219 11.601563 -11.601563 11.601563 h -36.1875 c -6.402344 0 -11.601563 -5.199219 -11.601563 -11.601563 v -28.300781 c 0 -6.402344 5.199219 -11.601562 11.601563 -11.601562 z m 0 0"
         id="path94" />
    </clipPath>
    <clipPath
       id="v">
      <path
         d="m 42 75 h 60 v 19 h -60 z m 0 0"
         id="path97" />
    </clipPath>
    <clipPath
       id="w">
      <path
         d="m 54.078125 75.898438 h 36.1875 c 6.402344 0 11.601563 5.199218 11.601563 11.601562 v 28.300781 c 0 6.402344 -5.199219 11.601563 -11.601563 11.601563 h -36.1875 c -6.402344 0 -11.601563 -5.199219 -11.601563 -11.601563 v -28.300781 c 0 -6.402344 5.199219 -11.601562 11.601563 -11.601562 z m 0 0"
         id="path100" />
    </clipPath>
    <clipPath
       id="x">
      <path
         d="m 43 75 h 59 v 52.402344 h -59 z m 0 0"
         id="path103" />
    </clipPath>
    <clipPath
       id="y">
      <path
         d="m 54.078125 75.898438 h 36.1875 c 6.402344 0 11.601563 5.199218 11.601563 11.601562 v 28.300781 c 0 6.402344 -5.199219 11.601563 -11.601563 11.601563 h -36.1875 c -6.402344 0 -11.601563 -5.199219 -11.601563 -11.601563 v -28.300781 c 0 -6.402344 5.199219 -11.601562 11.601563 -11.601562 z m 0 0"
         id="path106" />
    </clipPath>
    <clipPath
       id="z">
      <rect
         height="152"
         width="192"
         id="rect109" />
    </clipPath>
    <g
       id="A"
       clip-path="url(#z)">
      <g
         clip-path="url(#b)"
         id="g114">
        <path
           d="m 20.527344 77.566406 c -0.101563 2.554688 -0.328125 5.875 3.179687 8.429688 c 2.925781 1.828125 5.035157 3.472656 12.359375 3.472656 h 16.496094 c 6.464844 0 12.9375 -0.003906 19.402344 0 h 16.019531 c 6.628906 0 13.253906 -0.003906 19.878906 0 c 1.578125 0.019531 3.121094 -0.136719 4.589844 -0.421875 c 0.015625 -0.003906 0.027344 -0.003906 0.042969 -0.007813 c 0.410156 -0.082031 0.816406 -0.167968 1.21875 -0.273437 c 0.34375 -0.085937 0.6875 -0.183594 1.023437 -0.289063 c 0.039063 -0.007812 0.070313 -0.019531 0.109375 -0.03125 c 0.160156 -0.042968 0.316406 -0.089843 0.476563 -0.136718 c 0.90625 -0.304688 1.761719 -0.660156 2.558593 -1.074219 c 1.273438 -0.65625 2.363282 -1.433594 3.230469 -2.304687 c 0.230469 -0.230469 0.453125 -0.46875 0.652344 -0.707032 c 0.867187 -1.03125 1.414063 -2.15625 1.5625 -3.335937 c 0.003906 -0.035157 0.011719 -0.070313 0.019531 -0.109375 c 0.015625 -0.144532 0.027344 -0.292969 0.035156 -0.4375 c 0.019532 -0.210938 0.03125 -0.421875 0.023438 -0.632813 c -0.003906 -0.015625 -0.003906 -0.03125 -0.007812 -0.046875 c -0.015626 -0.265625 0.03125 -2.644531 -0.027344 -2.90625 c -0.246094 -1.28125 -0.988282 -0.402344 -2.042969 -1.519531 l -0.144531 -0.160156 c -0.308594 -0.347657 -0.632813 -0.695313 -0.976563 -1.027344 v -0.003906 l -16.828125 -17.792969 l -17.949218 -18.984375 c -2.941407 -3.109375 -8.507813 -4.9375 -14.382813 -4.726563 c -1.972656 0.058594 -3.925781 0.34375 -5.738281 0.886719 c -1.496094 0.402344 -2.792969 0.972657 -3.941406 1.648438 c -0.050782 0.027343 -0.101563 0.058593 -0.148438 0.085937 c -0.253906 0.15625 -0.503906 0.308594 -0.746094 0.472656 c -0.195312 0.136719 -0.386718 0.273438 -0.566406 0.410157 c -0.136719 0.101562 -0.269531 0.207031 -0.402344 0.3125 c -0.113281 0.089843 -0.222656 0.179687 -0.328125 0.273437 c -0.6875 0.582032 -1.300781 1.195313 -1.847656 1.824219 c -0.03125 0.050781 -0.058594 0.097656 -0.089844 0.148437 l -12.789062 36.925782 c 3.039062 4.378906 -24.027344 -10.613282 -23.921875 2.039062 z m 0 0"
           fill="url(#c)"
           fill-rule="evenodd"
           id="path112" />
      </g>
      <g
         clip-path="url(#d)"
         id="g120">
        <g
           clip-path="url(#e)"
           id="g118">
          <path
             d="m 47.417969 110.984375 c -0.132813 4.777344 2.425781 9.398437 7.09375 12.808594 c 4.671875 3.410156 11.0625 5.328125 17.730469 5.3125 l 57.175781 -0.113281 c 8.847656 -0.019532 17.007812 -3.421876 21.410156 -8.921876 c 4.398437 -5.5 4.371094 -12.273437 -0.066406 -17.753906 l -28.730469 -35.453125 c -4.449219 -5.484375 -12.632812 -8.851562 -21.476562 -8.832031 c -8.847657 0.015625 -17.007813 3.417969 -21.410157 8.917969 l -28.449219 35.566406 c -2.0625 2.578125 -3.1875 5.492187 -3.277343 8.46875 z m 0 0"
             fill="#2bbfae"
             fill-rule="evenodd"
             id="path116" />
        </g>
      </g>
      <g
         clip-path="url(#f)"
         id="g126">
        <g
           clip-path="url(#g)"
           id="g124">
          <path
             d="m -9.757812 111.097656 c -0.132813 4.777344 2.417968 9.398438 7.089843 12.808594 c 4.675781 3.410156 11.066407 5.328125 17.734375 5.316406 l 114.351563 -0.230468 l -0.140625 -35.511719 l -71.472656 0.144531 l 35.5625 -44.460938 l -42.949219 -17.667968 l -56.898438 71.136718 c -2.0625 2.578126 -3.1875 5.488282 -3.277343 8.464844 z m 0 0"
             fill="url(#h)"
             fill-rule="evenodd"
             id="path122" />
        </g>
      </g>
      <g
         clip-path="url(#i)"
         id="g132">
        <g
           clip-path="url(#j)"
           id="g130">
          <path
             d="m 18.691406 75.53125 c -0.136718 4.777344 2.417969 9.398438 7.09375 12.808594 c 4.667969 3.410156 11.0625 5.328125 17.726563 5.3125 l 57.183593 -0.113282 c 8.839844 -0.019531 17 -3.421874 21.402344 -8.921874 c 4.398438 -5.503907 4.371094 -12.269532 -0.066406 -17.753907 l -28.730469 -35.453125 c -4.441406 -5.480468 -12.628906 -8.851562 -21.476562 -8.832031 c -8.84375 0.015625 -17.003907 3.417969 -21.40625 8.917969 l -28.453125 35.570312 c -2.0625 2.578125 -3.1875 5.488282 -3.273438 8.464844 z m 0 0"
             fill="url(#k)"
             fill-rule="evenodd"
             id="path128" />
        </g>
      </g>
      <g
         clip-path="url(#l)"
         id="g138">
        <g
           clip-path="url(#m)"
           id="g136">
          <path
             d="m 43.148438 128.207031 c 12.925781 0.046875 25.847656 0.003907 38.769531 0.019531 h 0.078125 h 39.359375 c 3.050781 0 8.011719 -0.96875 12.367187 -2.878906 c 4.355469 -1.917968 8.105469 -4.777344 9.628906 -7.605468 c 1.011719 -1.875 2.023438 -3.539063 2.605469 -5.714844 c 0.355469 -1.335938 0.550781 -3.136719 0.476563 -4.492188 c -0.167969 -3.117187 -1.03125 -5.445312 -2.453125 -8.078125 l -27.550781 -35.898437 c -3.054688 -5.65625 -8.691407 -8.480469 -14.792969 -8.480469 c -6.101563 0 -11.738281 3.484375 -14.792969 9.144531 l -19.714844 36.570313 c -0.230468 0.4375 -0.449218 0.886719 -0.644531 1.34375 c -3.351563 6.164062 -6.582031 12.40625 -10.0625 18.480469 c -3.019531 4.550781 -8.070313 7.410156 -13.273437 7.589843 z m 0 0"
             fill="url(#n)"
             fill-rule="evenodd"
             id="path134" />
        </g>
      </g>
      <g
         clip-path="url(#o)"
         id="g144">
        <g
           clip-path="url(#p)"
           id="g142">
          <path
             d="m 122.261719 67.292969 c -9.628907 -11.980469 -19.371094 -23.921875 -29.042969 -35.882813 c -6.0625 -7.804687 -20.828125 -11.117187 -31.992188 -7.117187 c -5.78125 1.832031 -9.804687 5.5 -12.671874 9.429687 c -5.152344 9.484375 2.886718 21.648438 17.28125 23.828125 c 1.9375 0.636719 3.964843 0.554688 6.125 0.535157 c 10.328124 0.03125 20.664062 -0.148438 30.980468 0.027343 c 8.042969 0.527344 15.503906 4.074219 19.320313 9.179688 z m 0 0"
             fill="url(#q)"
             fill-rule="evenodd"
             id="path140" />
        </g>
      </g>
      <g
         clip-path="url(#r)"
         id="g150">
        <g
           clip-path="url(#s)"
           id="g148">
          <path
             d="m 47.417969 110.984375 c -0.132813 4.777344 2.425781 9.398437 7.09375 12.808594 c 4.671875 3.410156 11.0625 5.328125 17.730469 5.3125 l 57.175781 -0.113281 c 8.847656 -0.019532 17.007812 -3.421876 21.410156 -8.921876 c 4.398437 -5.5 4.371094 -12.273437 -0.066406 -17.753906 l -28.730469 -35.453125 c -4.449219 -5.484375 -12.632812 -8.851562 -21.476562 -8.832031 c -8.847657 0.015625 -17.007813 3.417969 -21.410157 8.917969 l -28.449219 35.566406 c -2.0625 2.578125 -3.1875 5.492187 -3.277343 8.46875 z m 0 0"
             fill="#2bbfae"
             fill-rule="evenodd"
             id="path146" />
        </g>
      </g>
      <g
         clip-path="url(#t)"
         id="g156">
        <g
           clip-path="url(#u)"
           id="g154">
          <path
             d="m -9.757812 111.097656 c -0.132813 4.777344 2.417968 9.398438 7.089843 12.808594 c 4.675781 3.410156 11.066407 5.328125 17.734375 5.316406 l 114.351563 -0.230468 l -0.140625 -35.511719 l -71.472656 0.144531 l 35.5625 -44.460938 l -42.949219 -17.667968 l -56.898438 71.136718 c -2.0625 2.578126 -3.1875 5.488282 -3.277343 8.464844 z m 0 0"
             fill="url(#h)"
             fill-rule="evenodd"
             id="path152" />
        </g>
      </g>
      <g
         clip-path="url(#v)"
         id="g162">
        <g
           clip-path="url(#w)"
           id="g160">
          <path
             d="m 18.691406 75.53125 c -0.136718 4.777344 2.417969 9.398438 7.09375 12.808594 c 4.667969 3.410156 11.0625 5.328125 17.726563 5.3125 l 57.183593 -0.113282 c 8.839844 -0.019531 17 -3.421874 21.402344 -8.921874 c 4.398438 -5.503907 4.371094 -12.269532 -0.066406 -17.753907 l -28.730469 -35.453125 c -4.441406 -5.480468 -12.628906 -8.851562 -21.476562 -8.832031 c -8.84375 0.015625 -17.003907 3.417969 -21.40625 8.917969 l -28.453125 35.570312 c -2.0625 2.578125 -3.1875 5.488282 -3.273438 8.464844 z m 0 0"
             fill="url(#k)"
             fill-rule="evenodd"
             id="path158" />
        </g>
      </g>
      <g
         clip-path="url(#x)"
         id="g168">
        <g
           clip-path="url(#y)"
           id="g166">
          <path
             d="m 43.148438 128.207031 c 12.925781 0.046875 25.847656 0.003907 38.769531 0.019531 h 0.078125 h 39.359375 c 3.050781 0 8.011719 -0.96875 12.367187 -2.878906 c 4.355469 -1.917968 8.105469 -4.777344 9.628906 -7.605468 c 1.011719 -1.875 2.023438 -3.539063 2.605469 -5.714844 c 0.355469 -1.335938 0.550781 -3.136719 0.476563 -4.492188 c -0.167969 -3.117187 -1.03125 -5.445312 -2.453125 -8.078125 l -27.550781 -35.898437 c -3.054688 -5.65625 -8.691407 -8.480469 -14.792969 -8.480469 c -6.101563 0 -11.738281 3.484375 -14.792969 9.144531 l -19.714844 36.570313 c -0.230468 0.4375 -0.449218 0.886719 -0.644531 1.34375 c -3.351563 6.164062 -6.582031 12.40625 -10.0625 18.480469 c -3.019531 4.550781 -8.070313 7.410156 -13.273437 7.589843 z m 0 0"
             fill="url(#n)"
             fill-rule="evenodd"
             id="path164" />
        </g>
      </g>
    </g>
    <clipPath
       id="B">
      <rect
         height="128"
         width="128"
         id="rect171" />
    </clipPath>
    <clipPath
       id="C">
      <rect
         height="128"
         width="128"
         id="rect174" />
    </clipPath>
    <filter
       id="D"
       height="1"
       width="1"
       x="0"
       y="0">
      <feColorMatrix
         in="SourceGraphic"
         type="matrix"
         values="0 0 0 0 1 0 0 0 0 1 0 0 0 0 1 0 0 0 1 0"
         id="feColorMatrix177" />
    </filter>
    <mask
       id="E">
      <g
         clip-path="url(#C)"
         filter="url(#D)"
         id="g186">
        <g
           clip-path="url(#B)"
           id="g184">
          <path
             d="m 41.347656 69.808594 h 45.546875 c 3.78125 0 6.847657 4.9375 6.847657 11.03125 v 24.035156 c 0 6.09375 -3.066407 11.035156 -6.847657 11.035156 h -45.546875 c -3.785156 0 -6.851562 -4.941406 -6.851562 -11.035156 v -24.035156 c 0 -6.09375 3.066406 -11.03125 6.851562 -11.03125 z m 0 0"
             fill="url(#a)"
             id="path180" />
          <use
             transform="matrix(1 0 0 1 -8 -16)"
             xlink:href="#A"
             id="use182" />
        </g>
      </g>
    </mask>
    <mask
       id="F">
      <g
         filter="url(#D)"
         id="g191">
        <rect
           fill-opacity="0.8"
           height="128"
           width="128"
           id="rect189" />
      </g>
    </mask>
    <linearGradient
       id="G"
       gradientTransform="matrix(0,0.37,-0.98462,0,295.38501,-30.360001)"
       gradientUnits="userSpaceOnUse"
       x1="300"
       x2="428"
       y1="235"
       y2="235">
      <stop
         offset="0"
         stop-color="#f9f06b"
         id="stop194" />
      <stop
         offset="1"
         stop-color="#f5c211"
         id="stop196" />
    </linearGradient>
    <clipPath
       id="H">
      <rect
         height="128"
         width="128"
         id="rect199" />
    </clipPath>
    <clipPath
       id="I">
      <rect
         height="128"
         width="128"
         id="rect202" />
    </clipPath>
    <clipPath
       id="I-2">
      <rect
         height="128"
         width="128"
         id="rect17369"
         x="0"
         y="0" />
    </clipPath>
    <mask
       id="E-8">
      <g
         clip-path="url(#C-9)"
         filter="url(#D)"
         id="g17353"
         style="filter:url(#D-7)">
        <g
           clip-path="url(#B-3)"
           id="g17351">
          <path
             d="m 41.347656,69.808594 h 45.546875 c 3.78125,0 6.847657,4.9375 6.847657,11.03125 V 104.875 c 0,6.09375 -3.066407,11.03516 -6.847657,11.03516 H 41.347656 c -3.785156,0 -6.851562,-4.94141 -6.851562,-11.03516 V 80.839844 c 0,-6.09375 3.066406,-11.03125 6.851562,-11.03125 z m 0,0"
             fill="url(#a)"
             id="path17347"
             style="fill:url(#a-6)" />
          <use
             transform="translate(-8,-16)"
             xlink:href="#A"
             id="use17349" />
        </g>
      </g>
    </mask>
    <clipPath
       id="C-9">
      <rect
         height="128"
         width="128"
         id="rect17341"
         x="0"
         y="0" />
    </clipPath>
    <filter
       id="D-7"
       height="1"
       width="1"
       x="0"
       y="0">
      <feColorMatrix
         in="SourceGraphic"
         type="matrix"
         values="0 0 0 0 1 0 0 0 0 1 0 0 0 0 1 0 0 0 1 0"
         id="feColorMatrix17344" />
    </filter>
    <clipPath
       id="B-3">
      <rect
         height="128"
         width="128"
         id="rect17338"
         x="0"
         y="0" />
    </clipPath>
    <linearGradient
       id="a-6"
       gradientTransform="matrix(0.943869,0,0,2.926441,-471.06758,-1692.3433)"
       gradientUnits="userSpaceOnUse"
       x1="95.556961"
       x2="30.610176"
       y1="288.83234"
       y2="288.83234">
      <stop
         offset="0"
         stop-color="#2b8080"
         id="stop17169" />
      <stop
         offset="0.0335631"
         stop-color="#c2eded"
         id="stop17171" />
      <stop
         offset="0.0854104"
         stop-color="#76b7b4"
         id="stop17173" />
      <stop
         offset="0.227649"
         stop-color="#2a817c"
         id="stop17175" />
      <stop
         offset="0.890786"
         stop-color="#38aabf"
         id="stop17177" />
      <stop
         offset="0.945393"
         stop-color="#b7d9fc"
         id="stop17179" />
      <stop
         offset="1"
         stop-color="#309186"
         id="stop17181" />
    </linearGradient>
    <clipPath
       id="z-1">
      <rect
         height="152"
         width="192"
         id="rect17276"
         x="0"
         y="0" />
    </clipPath>
    <clipPath
       id="b-2">
      <path
         d="M 20.496094,32 H 123.41016 V 90 H 20.496094 Z m 0,0"
         id="path17184" />
    </clipPath>
    <linearGradient
       id="c-9"
       gradientTransform="matrix(0,-56.948432,102.88631,0,20.52219,89.472421)"
       gradientUnits="userSpaceOnUse"
       x1="-0.040162001"
       x2="-0.040162001"
       y1="0.99435699"
       y2="0.0054060002">
      <stop
         offset="0"
         stop-color="#2b8f89"
         id="stop17187" />
      <stop
         offset="0.0186402"
         stop-color="#97dbba"
         stop-opacity="0.74902"
         id="stop17189" />
      <stop
         offset="0.0547227"
         stop-color="#2e9a8d"
         id="stop17191" />
      <stop
         offset="0.206769"
         stop-color="#2e9a8d"
         id="stop17193" />
      <stop
         offset="0.908214"
         stop-color="#175bad"
         id="stop17195" />
      <stop
         offset="0.97459"
         stop-color="#64a0e8"
         id="stop17197" />
      <stop
         offset="1"
         stop-color="#12498c"
         id="stop17199" />
    </linearGradient>
    <clipPath
       id="d-3">
      <path
         d="m 47,58 h 76.41016 V 86 H 47 Z m 0,0"
         id="path17202" />
    </clipPath>
    <clipPath
       id="e-1">
      <path
         d="m 20.5,75.929688 c -0.09766,2.589843 1.496094,5.09375 4.417969,6.945312 2.925781,1.855469 6.933593,2.898438 11.121093,2.898438 H 52.53125 c 6.46875,0 12.9375,-0.0039 19.40625,0 h 0.07031 15.949219 c 6.625,0 13.253909,-0.0039 19.878909,0 1.57422,0.01953 3.12109,-0.136719 4.58984,-0.429688 0.0156,0 0.0273,-0.0039 0.043,-0.0078 0.40625,-0.08203 0.8125,-0.167969 1.21484,-0.273438 0.34766,-0.08984 0.6875,-0.1875 1.02735,-0.292969 0.0352,-0.0078 0.0703,-0.02344 0.10937,-0.03125 0.16016,-0.04687 0.3125,-0.09375 0.47266,-0.144531 0.90625,-0.304688 1.76562,-0.667969 2.5625,-1.082031 1.27344,-0.667969 2.35937,-1.457031 3.23047,-2.339844 0.23047,-0.230469 0.44922,-0.472656 0.65234,-0.714844 0.86719,-1.042969 1.41016,-2.1875 1.5586,-3.378906 0.004,-0.03516 0.0156,-0.07422 0.0195,-0.113281 0.0195,-0.148438 0.0312,-0.292969 0.0391,-0.441406 0.0195,-0.214844 0.0312,-0.425782 0.0234,-0.640626 -0.004,-0.01562 -0.004,-0.03125 -0.008,-0.04687 -0.0156,-0.269532 -0.0469,-0.539063 -0.10546,-0.808594 -0.2461,-1.296875 -0.91407,-2.546875 -1.96485,-3.679688 L 121.15234,71.1875 c -0.30468,-0.351562 -0.6289,-0.703125 -0.97265,-1.042969 L 103.35156,52.113281 85.398438,32.878906 C 82.457031,29.726562 76.894531,27.875 71.019531,28.085938 c -1.972656,0.05859 -3.929687,0.347656 -5.738281,0.902343 -1.496094,0.402344 -2.792969,0.984375 -3.945312,1.664063 -0.04688,0.03125 -0.09766,0.0625 -0.148438,0.08984 -0.253906,0.15625 -0.503906,0.3125 -0.742188,0.480468 -0.195312,0.136719 -0.386718,0.273438 -0.570312,0.414063 -0.136719,0.105469 -0.269531,0.210937 -0.402344,0.316406 -0.109375,0.08984 -0.21875,0.183594 -0.324218,0.277344 -0.6875,0.585937 -1.304688,1.210937 -1.847657,1.847656 -0.03125,0.05078 -0.05859,0.101563 -0.08984,0.148437 L 22.578125,71.347656 C 21.277344,72.742188 20.5625,74.320312 20.5,75.929688 Z m 0,0"
         id="path17205" />
    </clipPath>
    <clipPath
       id="f-9">
      <path
         d="M 20.496094,31 H 123.41016 V 86 H 20.496094 Z m 0,0"
         id="path17208" />
    </clipPath>
    <clipPath
       id="g-4">
      <path
         d="m 20.5,75.929688 c -0.09766,2.589843 1.496094,5.09375 4.417969,6.945312 2.925781,1.855469 6.933593,2.898438 11.121093,2.898438 H 52.53125 c 6.46875,0 12.9375,-0.0039 19.40625,0 h 0.07031 15.949219 c 6.625,0 13.253909,-0.0039 19.878909,0 1.57422,0.01953 3.12109,-0.136719 4.58984,-0.429688 0.0156,0 0.0273,-0.0039 0.043,-0.0078 0.40625,-0.08203 0.8125,-0.167969 1.21484,-0.273438 0.34766,-0.08984 0.6875,-0.1875 1.02735,-0.292969 0.0352,-0.0078 0.0703,-0.02344 0.10937,-0.03125 0.16016,-0.04687 0.3125,-0.09375 0.47266,-0.144531 0.90625,-0.304688 1.76562,-0.667969 2.5625,-1.082031 1.27344,-0.667969 2.35937,-1.457031 3.23047,-2.339844 0.23047,-0.230469 0.44922,-0.472656 0.65234,-0.714844 0.86719,-1.042969 1.41016,-2.1875 1.5586,-3.378906 0.004,-0.03516 0.0156,-0.07422 0.0195,-0.113281 0.0195,-0.148438 0.0312,-0.292969 0.0391,-0.441406 0.0195,-0.214844 0.0312,-0.425782 0.0234,-0.640626 -0.004,-0.01562 -0.004,-0.03125 -0.008,-0.04687 -0.0156,-0.269532 -0.0469,-0.539063 -0.10546,-0.808594 -0.2461,-1.296875 -0.91407,-2.546875 -1.96485,-3.679688 L 121.15234,71.1875 c -0.30468,-0.351562 -0.6289,-0.703125 -0.97265,-1.042969 L 103.35156,52.113281 85.398438,32.878906 C 82.457031,29.726562 76.894531,27.875 71.019531,28.085938 c -1.972656,0.05859 -3.929687,0.347656 -5.738281,0.902343 -1.496094,0.402344 -2.792969,0.984375 -3.945312,1.664063 -0.04688,0.03125 -0.09766,0.0625 -0.148438,0.08984 -0.253906,0.15625 -0.503906,0.3125 -0.742188,0.480468 -0.195312,0.136719 -0.386718,0.273438 -0.570312,0.414063 -0.136719,0.105469 -0.269531,0.210937 -0.402344,0.316406 -0.109375,0.08984 -0.21875,0.183594 -0.324218,0.277344 -0.6875,0.585937 -1.304688,1.210937 -1.847657,1.847656 -0.03125,0.05078 -0.05859,0.101563 -0.08984,0.148437 L 22.578125,71.347656 C 21.277344,72.742188 20.5625,74.320312 20.5,75.929688 Z m 0,0"
         id="path17211" />
    </clipPath>
    <linearGradient
       id="h-7"
       gradientTransform="matrix(-0.382833,-97.651168,139.11237,-0.279921,-9.694844,129.27056)"
       gradientUnits="userSpaceOnUse"
       x1="0.136364"
       x2="0.40469801"
       y1="0.63683099"
       y2="0.15326899">
      <stop
         offset="0"
         stop-color="#56c5c4"
         id="stop17214" />
      <stop
         offset="1"
         stop-color="#1d65c9"
         id="stop17216" />
    </linearGradient>
    <clipPath
       id="i-8">
      <path
         d="M 20.496094,28.070312 H 123.41016 V 86 H 20.496094 Z m 0,0"
         id="path17219" />
    </clipPath>
    <clipPath
       id="j-4">
      <path
         d="m 20.5,75.929688 c -0.09766,2.589843 1.496094,5.09375 4.417969,6.945312 2.925781,1.855469 6.933593,2.898438 11.121093,2.898438 H 52.53125 c 6.46875,0 12.9375,-0.0039 19.40625,0 h 0.07031 15.949219 c 6.625,0 13.253909,-0.0039 19.878909,0 1.57422,0.01953 3.12109,-0.136719 4.58984,-0.429688 0.0156,0 0.0273,-0.0039 0.043,-0.0078 0.40625,-0.08203 0.8125,-0.167969 1.21484,-0.273438 0.34766,-0.08984 0.6875,-0.1875 1.02735,-0.292969 0.0352,-0.0078 0.0703,-0.02344 0.10937,-0.03125 0.16016,-0.04687 0.3125,-0.09375 0.47266,-0.144531 0.90625,-0.304688 1.76562,-0.667969 2.5625,-1.082031 1.27344,-0.667969 2.35937,-1.457031 3.23047,-2.339844 0.23047,-0.230469 0.44922,-0.472656 0.65234,-0.714844 0.86719,-1.042969 1.41016,-2.1875 1.5586,-3.378906 0.004,-0.03516 0.0156,-0.07422 0.0195,-0.113281 0.0195,-0.148438 0.0312,-0.292969 0.0391,-0.441406 0.0195,-0.214844 0.0312,-0.425782 0.0234,-0.640626 -0.004,-0.01562 -0.004,-0.03125 -0.008,-0.04687 -0.0156,-0.269532 -0.0469,-0.539063 -0.10546,-0.808594 -0.2461,-1.296875 -0.91407,-2.546875 -1.96485,-3.679688 L 121.15234,71.1875 c -0.30468,-0.351562 -0.6289,-0.703125 -0.97265,-1.042969 L 103.35156,52.113281 85.398438,32.878906 C 82.457031,29.726562 76.894531,27.875 71.019531,28.085938 c -1.972656,0.05859 -3.929687,0.347656 -5.738281,0.902343 -1.496094,0.402344 -2.792969,0.984375 -3.945312,1.664063 -0.04688,0.03125 -0.09766,0.0625 -0.148438,0.08984 -0.253906,0.15625 -0.503906,0.3125 -0.742188,0.480468 -0.195312,0.136719 -0.386718,0.273438 -0.570312,0.414063 -0.136719,0.105469 -0.269531,0.210937 -0.402344,0.316406 -0.109375,0.08984 -0.21875,0.183594 -0.324218,0.277344 -0.6875,0.585937 -1.304688,1.210937 -1.847657,1.847656 -0.03125,0.05078 -0.05859,0.101563 -0.08984,0.148437 L 22.578125,71.347656 C 21.277344,72.742188 20.5625,74.320312 20.5,75.929688 Z m 0,0"
         id="path17222" />
    </clipPath>
    <linearGradient
       id="k-5"
       gradientTransform="matrix(-0.277863,-71.018566,106.69097,-0.215086,18.757248,93.704163)"
       gradientUnits="userSpaceOnUse"
       x1="0.1875"
       x2="0.42211899"
       y1="0.86333102"
       y2="0.27678499">
      <stop
         offset="0"
         stop-color="#2dc0af"
         id="stop17225" />
      <stop
         offset="1"
         stop-color="#3584e4"
         id="stop17227" />
    </linearGradient>
    <clipPath
       id="l-0">
      <path
         d="m 43,55 h 80.41016 V 86 H 43 Z m 0,0"
         id="path17230" />
    </clipPath>
    <clipPath
       id="m-3">
      <path
         d="m 20.5,75.929688 c -0.09766,2.589843 1.496094,5.09375 4.417969,6.945312 2.925781,1.855469 6.933593,2.898438 11.121093,2.898438 H 52.53125 c 6.46875,0 12.9375,-0.0039 19.40625,0 h 0.07031 15.949219 c 6.625,0 13.253909,-0.0039 19.878909,0 1.57422,0.01953 3.12109,-0.136719 4.58984,-0.429688 0.0156,0 0.0273,-0.0039 0.043,-0.0078 0.40625,-0.08203 0.8125,-0.167969 1.21484,-0.273438 0.34766,-0.08984 0.6875,-0.1875 1.02735,-0.292969 0.0352,-0.0078 0.0703,-0.02344 0.10937,-0.03125 0.16016,-0.04687 0.3125,-0.09375 0.47266,-0.144531 0.90625,-0.304688 1.76562,-0.667969 2.5625,-1.082031 1.27344,-0.667969 2.35937,-1.457031 3.23047,-2.339844 0.23047,-0.230469 0.44922,-0.472656 0.65234,-0.714844 0.86719,-1.042969 1.41016,-2.1875 1.5586,-3.378906 0.004,-0.03516 0.0156,-0.07422 0.0195,-0.113281 0.0195,-0.148438 0.0312,-0.292969 0.0391,-0.441406 0.0195,-0.214844 0.0312,-0.425782 0.0234,-0.640626 -0.004,-0.01562 -0.004,-0.03125 -0.008,-0.04687 -0.0156,-0.269532 -0.0469,-0.539063 -0.10546,-0.808594 -0.2461,-1.296875 -0.91407,-2.546875 -1.96485,-3.679688 L 121.15234,71.1875 c -0.30468,-0.351562 -0.6289,-0.703125 -0.97265,-1.042969 L 103.35156,52.113281 85.398438,32.878906 C 82.457031,29.726562 76.894531,27.875 71.019531,28.085938 c -1.972656,0.05859 -3.929687,0.347656 -5.738281,0.902343 -1.496094,0.402344 -2.792969,0.984375 -3.945312,1.664063 -0.04688,0.03125 -0.09766,0.0625 -0.148438,0.08984 -0.253906,0.15625 -0.503906,0.3125 -0.742188,0.480468 -0.195312,0.136719 -0.386718,0.273438 -0.570312,0.414063 -0.136719,0.105469 -0.269531,0.210937 -0.402344,0.316406 -0.109375,0.08984 -0.21875,0.183594 -0.324218,0.277344 -0.6875,0.585937 -1.304688,1.210937 -1.847657,1.847656 -0.03125,0.05078 -0.05859,0.101563 -0.08984,0.148437 L 22.578125,71.347656 C 21.277344,72.742188 20.5625,74.320312 20.5,75.929688 Z m 0,0"
         id="path17233" />
    </clipPath>
    <linearGradient
       id="n-6"
       gradientTransform="matrix(0,-73.150949,103.29862,0,43.14974,128.22944)"
       gradientUnits="userSpaceOnUse"
       x1="0.56252301"
       x2="-0.30816799"
       y1="0.59785801"
       y2="0.473474">
      <stop
         offset="0"
         stop-color="#ffffff"
         stop-opacity="0.4"
         id="stop17236" />
      <stop
         offset="1"
         stop-color="#ffffff"
         stop-opacity="0"
         id="stop17238" />
    </linearGradient>
    <clipPath
       id="o-1">
      <path
         d="m 46,28.070312 h 77 V 68 H 46 Z m 0,0"
         id="path17241" />
    </clipPath>
    <clipPath
       id="p-0">
      <path
         d="m 20.5,75.929688 c -0.09766,2.589843 1.496094,5.09375 4.417969,6.945312 2.925781,1.855469 6.933593,2.898438 11.121093,2.898438 H 52.53125 c 6.46875,0 12.9375,-0.0039 19.40625,0 h 0.07031 15.949219 c 6.625,0 13.253909,-0.0039 19.878909,0 1.57422,0.01953 3.12109,-0.136719 4.58984,-0.429688 0.0156,0 0.0273,-0.0039 0.043,-0.0078 0.40625,-0.08203 0.8125,-0.167969 1.21484,-0.273438 0.34766,-0.08984 0.6875,-0.1875 1.02735,-0.292969 0.0352,-0.0078 0.0703,-0.02344 0.10937,-0.03125 0.16016,-0.04687 0.3125,-0.09375 0.47266,-0.144531 0.90625,-0.304688 1.76562,-0.667969 2.5625,-1.082031 1.27344,-0.667969 2.35937,-1.457031 3.23047,-2.339844 0.23047,-0.230469 0.44922,-0.472656 0.65234,-0.714844 0.86719,-1.042969 1.41016,-2.1875 1.5586,-3.378906 0.004,-0.03516 0.0156,-0.07422 0.0195,-0.113281 0.0195,-0.148438 0.0312,-0.292969 0.0391,-0.441406 0.0195,-0.214844 0.0312,-0.425782 0.0234,-0.640626 -0.004,-0.01562 -0.004,-0.03125 -0.008,-0.04687 -0.0156,-0.269532 -0.0469,-0.539063 -0.10546,-0.808594 -0.2461,-1.296875 -0.91407,-2.546875 -1.96485,-3.679688 L 121.15234,71.1875 c -0.30468,-0.351562 -0.6289,-0.703125 -0.97265,-1.042969 L 103.35156,52.113281 85.398438,32.878906 C 82.457031,29.726562 76.894531,27.875 71.019531,28.085938 c -1.972656,0.05859 -3.929687,0.347656 -5.738281,0.902343 -1.496094,0.402344 -2.792969,0.984375 -3.945312,1.664063 -0.04688,0.03125 -0.09766,0.0625 -0.148438,0.08984 -0.253906,0.15625 -0.503906,0.3125 -0.742188,0.480468 -0.195312,0.136719 -0.386718,0.273438 -0.570312,0.414063 -0.136719,0.105469 -0.269531,0.210937 -0.402344,0.316406 -0.109375,0.08984 -0.21875,0.183594 -0.324218,0.277344 -0.6875,0.585937 -1.304688,1.210937 -1.847657,1.847656 -0.03125,0.05078 -0.05859,0.101563 -0.08984,0.148437 L 22.578125,71.347656 C 21.277344,72.742188 20.5625,74.320312 20.5,75.929688 Z m 0,0"
         id="path17244" />
    </clipPath>
    <clipPath
       id="r-6">
      <path
         d="m 47,75 h 55 v 52.40234 H 47 Z m 0,0"
         id="path17252" />
    </clipPath>
    <clipPath
       id="s-3">
      <path
         d="m 54.078125,75.898438 h 36.1875 c 6.402344,0 11.601565,5.199218 11.601565,11.601562 v 28.30078 c 0,6.40235 -5.199221,11.60156 -11.601565,11.60156 h -36.1875 c -6.402344,0 -11.601563,-5.19921 -11.601563,-11.60156 V 87.5 c 0,-6.402344 5.199219,-11.601562 11.601563,-11.601562 z m 0,0"
         id="path17255" />
    </clipPath>
    <clipPath
       id="t-2">
      <path
         d="m 42,75 h 60 v 52.40234 H 42 Z m 0,0"
         id="path17258" />
    </clipPath>
    <clipPath
       id="u-0">
      <path
         d="m 54.078125,75.898438 h 36.1875 c 6.402344,0 11.601565,5.199218 11.601565,11.601562 v 28.30078 c 0,6.40235 -5.199221,11.60156 -11.601565,11.60156 h -36.1875 c -6.402344,0 -11.601563,-5.19921 -11.601563,-11.60156 V 87.5 c 0,-6.402344 5.199219,-11.601562 11.601563,-11.601562 z m 0,0"
         id="path17261" />
    </clipPath>
    <clipPath
       id="v-6">
      <path
         d="m 42,75 h 60 V 94 H 42 Z m 0,0"
         id="path17264" />
    </clipPath>
    <clipPath
       id="w-1">
      <path
         d="m 54.078125,75.898438 h 36.1875 c 6.402344,0 11.601565,5.199218 11.601565,11.601562 v 28.30078 c 0,6.40235 -5.199221,11.60156 -11.601565,11.60156 h -36.1875 c -6.402344,0 -11.601563,-5.19921 -11.601563,-11.60156 V 87.5 c 0,-6.402344 5.199219,-11.601562 11.601563,-11.601562 z m 0,0"
         id="path17267" />
    </clipPath>
    <clipPath
       id="x-5">
      <path
         d="m 43,75 h 59 v 52.40234 H 43 Z m 0,0"
         id="path17270" />
    </clipPath>
    <clipPath
       id="y-5">
      <path
         d="m 54.078125,75.898438 h 36.1875 c 6.402344,0 11.601565,5.199218 11.601565,11.601562 v 28.30078 c 0,6.40235 -5.199221,11.60156 -11.601565,11.60156 h -36.1875 c -6.402344,0 -11.601563,-5.19921 -11.601563,-11.60156 V 87.5 c 0,-6.402344 5.199219,-11.601562 11.601563,-11.601562 z m 0,0"
         id="path17273" />
    </clipPath>
    <clipPath
       id="clipPath23685">
      <rect
         height="152"
         width="192"
         id="rect23683"
         x="0"
         y="0" />
    </clipPath>
    <clipPath
       id="clipPath23689">
      <path
         d="M 20.496094,32 H 123.41016 V 90 H 20.496094 Z m 0,0"
         id="path23687" />
    </clipPath>
    <clipPath
       id="clipPath23709">
      <path
         d="m 47,58 h 76.41016 V 86 H 47 Z m 0,0"
         id="path23707" />
    </clipPath>
    <clipPath
       id="clipPath23713">
      <path
         d="m 20.5,75.929688 c -0.09766,2.589843 1.496094,5.09375 4.417969,6.945312 2.925781,1.855469 6.933593,2.898438 11.121093,2.898438 H 52.53125 c 6.46875,0 12.9375,-0.0039 19.40625,0 h 0.07031 15.949219 c 6.625,0 13.253909,-0.0039 19.878909,0 1.57422,0.01953 3.12109,-0.136719 4.58984,-0.429688 0.0156,0 0.0273,-0.0039 0.043,-0.0078 0.40625,-0.08203 0.8125,-0.167969 1.21484,-0.273438 0.34766,-0.08984 0.6875,-0.1875 1.02735,-0.292969 0.0352,-0.0078 0.0703,-0.02344 0.10937,-0.03125 0.16016,-0.04687 0.3125,-0.09375 0.47266,-0.144531 0.90625,-0.304688 1.76562,-0.667969 2.5625,-1.082031 1.27344,-0.667969 2.35937,-1.457031 3.23047,-2.339844 0.23047,-0.230469 0.44922,-0.472656 0.65234,-0.714844 0.86719,-1.042969 1.41016,-2.1875 1.5586,-3.378906 0.004,-0.03516 0.0156,-0.07422 0.0195,-0.113281 0.0195,-0.148438 0.0312,-0.292969 0.0391,-0.441406 0.0195,-0.214844 0.0312,-0.425782 0.0234,-0.640626 -0.004,-0.01562 -0.004,-0.03125 -0.008,-0.04687 -0.0156,-0.269532 -0.0469,-0.539063 -0.10546,-0.808594 -0.2461,-1.296875 -0.91407,-2.546875 -1.96485,-3.679688 L 121.15234,71.1875 c -0.30468,-0.351562 -0.6289,-0.703125 -0.97265,-1.042969 L 103.35156,52.113281 85.398438,32.878906 C 82.457031,29.726562 76.894531,27.875 71.019531,28.085938 c -1.972656,0.05859 -3.929687,0.347656 -5.738281,0.902343 -1.496094,0.402344 -2.792969,0.984375 -3.945312,1.664063 -0.04688,0.03125 -0.09766,0.0625 -0.148438,0.08984 -0.253906,0.15625 -0.503906,0.3125 -0.742188,0.480468 -0.195312,0.136719 -0.386718,0.273438 -0.570312,0.414063 -0.136719,0.105469 -0.269531,0.210937 -0.402344,0.316406 -0.109375,0.08984 -0.21875,0.183594 -0.324218,0.277344 -0.6875,0.585937 -1.304688,1.210937 -1.847657,1.847656 -0.03125,0.05078 -0.05859,0.101563 -0.08984,0.148437 L 22.578125,71.347656 C 21.277344,72.742188 20.5625,74.320312 20.5,75.929688 Z m 0,0"
         id="path23711" />
    </clipPath>
    <clipPath
       id="clipPath23717">
      <path
         d="M 20.496094,31 H 123.41016 V 86 H 20.496094 Z m 0,0"
         id="path23715" />
    </clipPath>
    <clipPath
       id="clipPath23721">
      <path
         d="m 20.5,75.929688 c -0.09766,2.589843 1.496094,5.09375 4.417969,6.945312 2.925781,1.855469 6.933593,2.898438 11.121093,2.898438 H 52.53125 c 6.46875,0 12.9375,-0.0039 19.40625,0 h 0.07031 15.949219 c 6.625,0 13.253909,-0.0039 19.878909,0 1.57422,0.01953 3.12109,-0.136719 4.58984,-0.429688 0.0156,0 0.0273,-0.0039 0.043,-0.0078 0.40625,-0.08203 0.8125,-0.167969 1.21484,-0.273438 0.34766,-0.08984 0.6875,-0.1875 1.02735,-0.292969 0.0352,-0.0078 0.0703,-0.02344 0.10937,-0.03125 0.16016,-0.04687 0.3125,-0.09375 0.47266,-0.144531 0.90625,-0.304688 1.76562,-0.667969 2.5625,-1.082031 1.27344,-0.667969 2.35937,-1.457031 3.23047,-2.339844 0.23047,-0.230469 0.44922,-0.472656 0.65234,-0.714844 0.86719,-1.042969 1.41016,-2.1875 1.5586,-3.378906 0.004,-0.03516 0.0156,-0.07422 0.0195,-0.113281 0.0195,-0.148438 0.0312,-0.292969 0.0391,-0.441406 0.0195,-0.214844 0.0312,-0.425782 0.0234,-0.640626 -0.004,-0.01562 -0.004,-0.03125 -0.008,-0.04687 -0.0156,-0.269532 -0.0469,-0.539063 -0.10546,-0.808594 -0.2461,-1.296875 -0.91407,-2.546875 -1.96485,-3.679688 L 121.15234,71.1875 c -0.30468,-0.351562 -0.6289,-0.703125 -0.97265,-1.042969 L 103.35156,52.113281 85.398438,32.878906 C 82.457031,29.726562 76.894531,27.875 71.019531,28.085938 c -1.972656,0.05859 -3.929687,0.347656 -5.738281,0.902343 -1.496094,0.402344 -2.792969,0.984375 -3.945312,1.664063 -0.04688,0.03125 -0.09766,0.0625 -0.148438,0.08984 -0.253906,0.15625 -0.503906,0.3125 -0.742188,0.480468 -0.195312,0.136719 -0.386718,0.273438 -0.570312,0.414063 -0.136719,0.105469 -0.269531,0.210937 -0.402344,0.316406 -0.109375,0.08984 -0.21875,0.183594 -0.324218,0.277344 -0.6875,0.585937 -1.304688,1.210937 -1.847657,1.847656 -0.03125,0.05078 -0.05859,0.101563 -0.08984,0.148437 L 22.578125,71.347656 C 21.277344,72.742188 20.5625,74.320312 20.5,75.929688 Z m 0,0"
         id="path23719" />
    </clipPath>
    <clipPath
       id="clipPath23731">
      <path
         d="M 20.496094,28.070312 H 123.41016 V 86 H 20.496094 Z m 0,0"
         id="path23729" />
    </clipPath>
    <clipPath
       id="clipPath23735">
      <path
         d="m 20.5,75.929688 c -0.09766,2.589843 1.496094,5.09375 4.417969,6.945312 2.925781,1.855469 6.933593,2.898438 11.121093,2.898438 H 52.53125 c 6.46875,0 12.9375,-0.0039 19.40625,0 h 0.07031 15.949219 c 6.625,0 13.253909,-0.0039 19.878909,0 1.57422,0.01953 3.12109,-0.136719 4.58984,-0.429688 0.0156,0 0.0273,-0.0039 0.043,-0.0078 0.40625,-0.08203 0.8125,-0.167969 1.21484,-0.273438 0.34766,-0.08984 0.6875,-0.1875 1.02735,-0.292969 0.0352,-0.0078 0.0703,-0.02344 0.10937,-0.03125 0.16016,-0.04687 0.3125,-0.09375 0.47266,-0.144531 0.90625,-0.304688 1.76562,-0.667969 2.5625,-1.082031 1.27344,-0.667969 2.35937,-1.457031 3.23047,-2.339844 0.23047,-0.230469 0.44922,-0.472656 0.65234,-0.714844 0.86719,-1.042969 1.41016,-2.1875 1.5586,-3.378906 0.004,-0.03516 0.0156,-0.07422 0.0195,-0.113281 0.0195,-0.148438 0.0312,-0.292969 0.0391,-0.441406 0.0195,-0.214844 0.0312,-0.425782 0.0234,-0.640626 -0.004,-0.01562 -0.004,-0.03125 -0.008,-0.04687 -0.0156,-0.269532 -0.0469,-0.539063 -0.10546,-0.808594 -0.2461,-1.296875 -0.91407,-2.546875 -1.96485,-3.679688 L 121.15234,71.1875 c -0.30468,-0.351562 -0.6289,-0.703125 -0.97265,-1.042969 L 103.35156,52.113281 85.398438,32.878906 C 82.457031,29.726562 76.894531,27.875 71.019531,28.085938 c -1.972656,0.05859 -3.929687,0.347656 -5.738281,0.902343 -1.496094,0.402344 -2.792969,0.984375 -3.945312,1.664063 -0.04688,0.03125 -0.09766,0.0625 -0.148438,0.08984 -0.253906,0.15625 -0.503906,0.3125 -0.742188,0.480468 -0.195312,0.136719 -0.386718,0.273438 -0.570312,0.414063 -0.136719,0.105469 -0.269531,0.210937 -0.402344,0.316406 -0.109375,0.08984 -0.21875,0.183594 -0.324218,0.277344 -0.6875,0.585937 -1.304688,1.210937 -1.847657,1.847656 -0.03125,0.05078 -0.05859,0.101563 -0.08984,0.148437 L 22.578125,71.347656 C 21.277344,72.742188 20.5625,74.320312 20.5,75.929688 Z m 0,0"
         id="path23733" />
    </clipPath>
    <clipPath
       id="clipPath23745">
      <path
         d="m 43,55 h 80.41016 V 86 H 43 Z m 0,0"
         id="path23743" />
    </clipPath>
    <clipPath
       id="clipPath23749">
      <path
         d="m 20.5,75.929688 c -0.09766,2.589843 1.496094,5.09375 4.417969,6.945312 2.925781,1.855469 6.933593,2.898438 11.121093,2.898438 H 52.53125 c 6.46875,0 12.9375,-0.0039 19.40625,0 h 0.07031 15.949219 c 6.625,0 13.253909,-0.0039 19.878909,0 1.57422,0.01953 3.12109,-0.136719 4.58984,-0.429688 0.0156,0 0.0273,-0.0039 0.043,-0.0078 0.40625,-0.08203 0.8125,-0.167969 1.21484,-0.273438 0.34766,-0.08984 0.6875,-0.1875 1.02735,-0.292969 0.0352,-0.0078 0.0703,-0.02344 0.10937,-0.03125 0.16016,-0.04687 0.3125,-0.09375 0.47266,-0.144531 0.90625,-0.304688 1.76562,-0.667969 2.5625,-1.082031 1.27344,-0.667969 2.35937,-1.457031 3.23047,-2.339844 0.23047,-0.230469 0.44922,-0.472656 0.65234,-0.714844 0.86719,-1.042969 1.41016,-2.1875 1.5586,-3.378906 0.004,-0.03516 0.0156,-0.07422 0.0195,-0.113281 0.0195,-0.148438 0.0312,-0.292969 0.0391,-0.441406 0.0195,-0.214844 0.0312,-0.425782 0.0234,-0.640626 -0.004,-0.01562 -0.004,-0.03125 -0.008,-0.04687 -0.0156,-0.269532 -0.0469,-0.539063 -0.10546,-0.808594 -0.2461,-1.296875 -0.91407,-2.546875 -1.96485,-3.679688 L 121.15234,71.1875 c -0.30468,-0.351562 -0.6289,-0.703125 -0.97265,-1.042969 L 103.35156,52.113281 85.398438,32.878906 C 82.457031,29.726562 76.894531,27.875 71.019531,28.085938 c -1.972656,0.05859 -3.929687,0.347656 -5.738281,0.902343 -1.496094,0.402344 -2.792969,0.984375 -3.945312,1.664063 -0.04688,0.03125 -0.09766,0.0625 -0.148438,0.08984 -0.253906,0.15625 -0.503906,0.3125 -0.742188,0.480468 -0.195312,0.136719 -0.386718,0.273438 -0.570312,0.414063 -0.136719,0.105469 -0.269531,0.210937 -0.402344,0.316406 -0.109375,0.08984 -0.21875,0.183594 -0.324218,0.277344 -0.6875,0.585937 -1.304688,1.210937 -1.847657,1.847656 -0.03125,0.05078 -0.05859,0.101563 -0.08984,0.148437 L 22.578125,71.347656 C 21.277344,72.742188 20.5625,74.320312 20.5,75.929688 Z m 0,0"
         id="path23747" />
    </clipPath>
    <clipPath
       id="clipPath23759">
      <path
         d="m 46,28.070312 h 77 V 68 H 46 Z m 0,0"
         id="path23757" />
    </clipPath>
    <clipPath
       id="clipPath23763">
      <path
         d="m 20.5,75.929688 c -0.09766,2.589843 1.496094,5.09375 4.417969,6.945312 2.925781,1.855469 6.933593,2.898438 11.121093,2.898438 H 52.53125 c 6.46875,0 12.9375,-0.0039 19.40625,0 h 0.07031 15.949219 c 6.625,0 13.253909,-0.0039 19.878909,0 1.57422,0.01953 3.12109,-0.136719 4.58984,-0.429688 0.0156,0 0.0273,-0.0039 0.043,-0.0078 0.40625,-0.08203 0.8125,-0.167969 1.21484,-0.273438 0.34766,-0.08984 0.6875,-0.1875 1.02735,-0.292969 0.0352,-0.0078 0.0703,-0.02344 0.10937,-0.03125 0.16016,-0.04687 0.3125,-0.09375 0.47266,-0.144531 0.90625,-0.304688 1.76562,-0.667969 2.5625,-1.082031 1.27344,-0.667969 2.35937,-1.457031 3.23047,-2.339844 0.23047,-0.230469 0.44922,-0.472656 0.65234,-0.714844 0.86719,-1.042969 1.41016,-2.1875 1.5586,-3.378906 0.004,-0.03516 0.0156,-0.07422 0.0195,-0.113281 0.0195,-0.148438 0.0312,-0.292969 0.0391,-0.441406 0.0195,-0.214844 0.0312,-0.425782 0.0234,-0.640626 -0.004,-0.01562 -0.004,-0.03125 -0.008,-0.04687 -0.0156,-0.269532 -0.0469,-0.539063 -0.10546,-0.808594 -0.2461,-1.296875 -0.91407,-2.546875 -1.96485,-3.679688 L 121.15234,71.1875 c -0.30468,-0.351562 -0.6289,-0.703125 -0.97265,-1.042969 L 103.35156,52.113281 85.398438,32.878906 C 82.457031,29.726562 76.894531,27.875 71.019531,28.085938 c -1.972656,0.05859 -3.929687,0.347656 -5.738281,0.902343 -1.496094,0.402344 -2.792969,0.984375 -3.945312,1.664063 -0.04688,0.03125 -0.09766,0.0625 -0.148438,0.08984 -0.253906,0.15625 -0.503906,0.3125 -0.742188,0.480468 -0.195312,0.136719 -0.386718,0.273438 -0.570312,0.414063 -0.136719,0.105469 -0.269531,0.210937 -0.402344,0.316406 -0.109375,0.08984 -0.21875,0.183594 -0.324218,0.277344 -0.6875,0.585937 -1.304688,1.210937 -1.847657,1.847656 -0.03125,0.05078 -0.05859,0.101563 -0.08984,0.148437 L 22.578125,71.347656 C 21.277344,72.742188 20.5625,74.320312 20.5,75.929688 Z m 0,0"
         id="path23761" />
    </clipPath>
    <clipPath
       id="clipPath23773">
      <path
         d="m 47,75 h 55 v 52.40234 H 47 Z m 0,0"
         id="path23771" />
    </clipPath>
    <clipPath
       id="clipPath23777">
      <path
         d="m 54.078125,75.898438 h 36.1875 c 6.402344,0 11.601565,5.199218 11.601565,11.601562 v 28.30078 c 0,6.40235 -5.199221,11.60156 -11.601565,11.60156 h -36.1875 c -6.402344,0 -11.601563,-5.19921 -11.601563,-11.60156 V 87.5 c 0,-6.402344 5.199219,-11.601562 11.601563,-11.601562 z m 0,0"
         id="path23775" />
    </clipPath>
    <clipPath
       id="clipPath23781">
      <path
         d="m 42,75 h 60 v 52.40234 H 42 Z m 0,0"
         id="path23779" />
    </clipPath>
    <clipPath
       id="clipPath23785">
      <path
         d="m 54.078125,75.898438 h 36.1875 c 6.402344,0 11.601565,5.199218 11.601565,11.601562 v 28.30078 c 0,6.40235 -5.199221,11.60156 -11.601565,11.60156 h -36.1875 c -6.402344,0 -11.601563,-5.19921 -11.601563,-11.60156 V 87.5 c 0,-6.402344 5.199219,-11.601562 11.601563,-11.601562 z m 0,0"
         id="path23783" />
    </clipPath>
    <clipPath
       id="clipPath23795">
      <path
         d="m 42,75 h 60 V 94 H 42 Z m 0,0"
         id="path23793" />
    </clipPath>
    <clipPath
       id="clipPath23799">
      <path
         d="m 54.078125,75.898438 h 36.1875 c 6.402344,0 11.601565,5.199218 11.601565,11.601562 v 28.30078 c 0,6.40235 -5.199221,11.60156 -11.601565,11.60156 h -36.1875 c -6.402344,0 -11.601563,-5.19921 -11.601563,-11.60156 V 87.5 c 0,-6.402344 5.199219,-11.601562 11.601563,-11.601562 z m 0,0"
         id="path23797" />
    </clipPath>
    <clipPath
       id="clipPath23809">
      <path
         d="m 43,75 h 59 v 52.40234 H 43 Z m 0,0"
         id="path23807" />
    </clipPath>
    <clipPath
       id="clipPath23813">
      <path
         d="m 54.078125,75.898438 h 36.1875 c 6.402344,0 11.601565,5.199218 11.601565,11.601562 v 28.30078 c 0,6.40235 -5.199221,11.60156 -11.601565,11.60156 h -36.1875 c -6.402344,0 -11.601563,-5.19921 -11.601563,-11.60156 V 87.5 c 0,-6.402344 5.199219,-11.601562 11.601563,-11.601562 z m 0,0"
         id="path23811" />
    </clipPath>
    <clipPath
       id="H-4">
      <rect
         height="128"
         width="128"
         id="rect17366"
         x="0"
         y="0" />
    </clipPath>
    <mask
       id="F-7">
      <g
         filter="url(#D)"
         id="g17358"
         style="filter:url(#D-7)">
        <rect
           fill-opacity="0.8"
           height="128"
           width="128"
           id="rect17356"
           x="0"
           y="0" />
      </g>
    </mask>
    <filter
       id="filter23828"
       height="1"
       width="1"
       x="0"
       y="0">
      <feColorMatrix
         in="SourceGraphic"
         type="matrix"
         values="0 0 0 0 1 0 0 0 0 1 0 0 0 0 1 0 0 0 1 0"
         id="feColorMatrix23826" />
    </filter>
  </defs>
  <path
     d="m 41.347656 69.808594 h 45.546875 c 3.78125 0 6.847657 4.9375 6.847657 11.03125 v 24.035156 c 0 6.09375 -3.066407 11.035156 -6.847657 11.035156 h -45.546875 c -3.785156 0 -6.851562 -4.941406 -6.851562 -11.035156 v -24.035156 c 0 -6.09375 3.066406 -11.03125 6.851562 -11.03125 z m 0 0"
     fill="url(#a)"
     id="path207" />
  <use
     transform="matrix(1 0 0 1 -8 -16)"
     xlink:href="#A"
     id="use209" />
  <g
     clip-path="url(#I-2)"
     mask="url(#E-8)"
     id="g17384"
     transform="translate(0,3.75e-4)">
    <g
       clip-path="url(#H-4)"
       mask="url(#F-7)"
       id="g17382">
      <path
         d="M 128,80.640625 V 128 H 0 V 80.640625 Z m 0,0"
         fill="url(#G)"
         id="path17378"
         style="fill:url(#G)" />
      <path
         d="M 13.308594,80.640625 60.664062,128 H 81.878906 L 34.519531,80.640625 Z m 42.421875,0 L 103.09375,128 h 21.21484 L 76.945312,80.640625 Z m 42.429687,0 L 128,110.48047 V 89.269531 l -8.62891,-8.628906 z M 0,88.546875 V 109.76172 L 18.238281,128 h 21.214844 z m 0,0"
         id="path17380" />
    </g>
  </g>
</svg>
